Teachernr,Teacher-lastname,Mean Hours per year
EXTERN,Docent,54.468699839486355
M7640015,Arentsen,10.721153846153847
M7640024,Fisscher,9.258474576271187
M7640124,Zuilekom,17.017184035476717
M7640158,Schuur,39.495522388059705
M7640159,Wieringa,3.5729166666666665
M7640167,Poel,16.439403553299492
M7640185,Aarts,5.474025974025974
M7640197,Meijer,27.405844155844157
M7640198,Tragter,19.977631578947367
M7640201,Hemmes,36.823177083333334
M7640211,Bressers,3.5
M7640227,Snellink,20.01937618147448
M7640235,Boere-Boonekamp,12.623376623376624
M7640249,Sinderen,12.82638888888889
M7640252,Broenink,16.745098039215687
M7640269,Jong,26.862135922330097
M7640283,Kok,3.5
M7640326,Krabbendam,22.05
M7640341,Hoeven,16.589357429718877
M7640365,Roelofs,7.5
M7640367,Ommeren,53.794111302847284
M7640399,Kerkhoff,9.869760479041917
M7640400,Kern,29.372393661384486
M7640406,Broersma,3.7777777777777777
M7640411,Huerne,35.584123222748815
M7640432,Langerak,6.017663043478261
M7640439,Wegen,17.155898876404493
M7640445,Heijden,35.224935732647815
M7640452,Still,16.49865047233468
M7640476,Hendriks,2.5421686746987953
M7640491,Dijk,16.114754098360656
M7640501,Ridder,1.9166666666666667
M7640502,Mouthaan,32.12619047619047
M7640504,Groenland,1.75
M7640524,Kuper,32.403329065300895
M7640567,Bruggencate,1.7272727272727273
M7640608,Broek,2.6166666666666667
M7640630,Akker,36.82015065913371
M7640634,Koppelman,41.94626168224299
M7640635,Boxem,26.68813775510204
M7640640,Diepen,18.008064516129032
M7640644,Betlem,3.6315789473684212
M7640662,Looise,133.60714285714286
M7640703,Brack,6.0
M7640714,Telgen,109.41019417475728
M7640721,Smit,5.2620481927710845
M7640753,Clancy,6.96875
M7640765,Meij,9.202290076335878
M7640779,Engbersen,2.5
M7640787,Gils,9.902573529411764
M7640798,Schipper,19.269132653061224
M7640809,Glas,35.00757575757576
M7640831,Kate,2.2
M7640834,Breedveld,11.539267015706807
M7640853,Geijselaers,27.703254437869823
M7640859,Slump,25.74370409233998
M7640861,Brake,81.51248581157775
M7640869,Scholten,22.66875
M7640870,Dijk,13.38828125
M7640874,Berkum,8.091240875912408
M7640887,Oost,5.919847328244275
M7640904,Jonker,20.014864864864865
M7640905,Polderman,32.8646080760095
M7640906,Dijkstra,16.736376021798364
M7640916,Oosterloo,21.79341534008683
M7640927,Groesen,6.782094594594595
M7640929,Pras,36.85940919037199
M7640935,Folkers,2.5
M7640943,Denters,6.16374269005848
M7640945,Doorn,9.854166666666666
M7640961,Vos,118.1149142022636
M7640965,Oosterhuis-Geers,5.82
M7640977,Molenkamp,31.402527075812273
M7640993,Briels,3.9166666666666665
M7640999,Visscher,3.3421052631578947
M7641004,Poortema,25.785361842105264
M7641010,Akse,3.930327868852459
M7641013,Jeurnink,21.04903381642512
M7641014,Boldy,15.474887133182845
M7641015,Hoppe,4.25
M7641036,Knoopers,22.064705882352943
M7641038,Albert de la Bruheze,10.66851851851852
M7641041,Winnubst,21.77434210526316
M7641042,Bouwmeester,7.529620853080568
M7641049,Tuuk-Brand,12.780821917808218
M7641054,Klumperink,7.413961038961039
M7641058,Heerkens,27.301694915254238
M7641059,Poot,13.651574803149606
M7641065,Gutteling,1.9166666666666667
M7641066,Krozer,3.0
M7641078,Heijden,7.526654411764706
M7641079,Kuttschreuter,7.42741935483871
M7641081,Mullender,3.5
M7641084,Hoeijmakers,16.96533923303835
M7641092,Maarseveen,3.0
M7641100,Meijer,57.06303045431852
M7641102,Ribberink,15.038967611336032
M7641107,Damme,52.90134340890008
M7641109,Buijsrogge,2.9285714285714284
M7641110,Jong,2.0
M7641124,Veugelers,66.00920736589272
M7641129,Zwiers,7.993769470404985
M7641134,Korsten,11.773255813953488
M7641139,Burg,11.679878048780488
M7641147,Tielen,112.74137193382772
M7641163,Zwier,49.872338438550614
M7641168,Hessen,1.8888888888888888
M7641171,Verboom,35.31707317073171
M7641175,Aksit,4.077272727272727
M7641181,Bentum,6.603448275862069
M7641185,Brinksma,4.45
M7641199,Taal,8.215
M7641211,Benthem,40.91020114942529
M7641227,Venner,6.4036697247706424
M7641232,Geest,8.597633136094675
M7641233,Bramer,19.28207236842105
M7641239,Kruyt,7.918
M7641240,Leemkuil,14.621124031007753
M7641244,Aarts,46.10471464019851
M7641270,Salm,12.118506493506494
M7641281,Voort,12.921580188679245
M7641300,Veldkamp,34.35790774299835
M7641322,Visscher-Voerman,4.0
M7641333,Rijnders,5.5344827586206895
M7641345,Elshof,17.073340471092077
M7641359,Rooij,30.976117103235747
M7641362,Slotman,6.995454545454545
M7641370,Vries,3.5889830508474576
M7641378,Grijpma,5.911290322580645
M7641455,Ruel,133.60714285714286
M7641462,Lutters,60.01102030708272
M7641488,IJzerman,11.248239436619718
M7641519,Punt,41.14476102941177
M7641525,Ham,59.214507772020724
M7641576,Otto,5.072992700729927
M7641586,Gommer,25.722981770833332
M7641655,Hans,26.422507788161994
M7641679,Molen,13.056338028169014
M7641695,Dijkstra,2.967391304347826
M7641696,Meij,11.178947368421053
M7641720,Kanger,15.437837837837838
M7641741,Dijksterhuis,17.425314465408807
M7641774,Zwart,25.879429892141758
M7641837,Kooij,3.793103448275862
M7641843,Bonsma,6.1044303797468356
M7641909,Groen,1.7125
M7641910,Boukamp,3.475
M7641912,Oudshoorn,45.94493392070485
M7641915,Groenendijk,6.501628664495114
M7641928,Becht,14.92572741194487
M7641930,Hoeksema,13.483532934131736
M7641940,Havinga,3.6470588235294117
M7641944,Olthuis,30.830100574712645
M7641953,Wijnhoven,46.2235824742268
M7641964,Coenen,1.75
M7641966,Jongbloed,1.5833333333333333
M7641971,Sikkel,55.5734
M7641985,Spil,53.67621527777778
M7641988,Hekman,33.842557251908396
M7641990,Schut,5.25
M7642003,Gemert-Pijnen,9.786363636363637
M7642010,Dorbeck-Jung,17.24705882352941
M7642013,Boogaard,32.42611336032389
M7642022,Gerez,10.79040404040404
M7642031,Egberink,15.954379562043796
M7642036,Doree,29.473938223938223
M7642060,Veen,9.372047244094489
M7642065,Al-Dhahir,26.578334825425245
M7642078,Brocks,9.351495726495726
M7642085,Veltink,6.221875
M7642086,Wormeester,16.459876543209877
M7642088,Krijnen,40.53280998389694
M7642103,Elwenspoek,6.278846153846154
M7642106,Jong,6.654891304347826
M7642130,Tel,17.61547811993517
M7642142,Wijnant,13.515873015873016
M7642159,Nauta,21.583937198067634
M7642180,Tijhuis,2.0
M7642186,Krone,47.10229976209358
M7642213,Drent,29.52492596248766
M7642220,Lammertink,15.327519379844961
M7642225,Kolk,15.73589164785553
M7642230,Heijenk,5.293103448275862
M7642278,Hilgenkamp,2.1117021276595747
M7642305,Meershoek,3.30859375
M7642319,Raesfeld Meijer,103.05909090909091
M7642342,Ordelman,2.0
M7642351,Kroon,36.497542997543
M7642352,Brinkman,8.696629213483146
M7642411,Abelmann,5.470588235294118
M7642434,Roos-Krabbenbos,26.945132743362834
M7642468,Jannink-van het Reve,13.056338028169014
M7642483,Eysink,8.074468085106384
M7642490,Lutters-Weustink,73.27977145148355
M7642504,Zee,11.03903345724907
M7642527,Meinders,2.019230769230769
M7642603,Nijmeijer,3.0
M7642648,Hiemstra,6.357954545454546
M7642650,Schutten,16.6535
M7642681,Augustijn,6.6923076923076925
M7642707,Booij,6.4793233082706765
M7642708,Jongh,12.510845986984815
M7642709,Aarts,8.053493449781659
M7642731,Hempenius,23.221945137157107
M7642736,Vellekoop,5.450367647058823
M7642740,Meer,4.655555555555556
M7642763,Verbeek,6.271897810218978
M7642776,Boogaard,3.55
M7642835,Post,13.115750528541227
M7642857,Hulscher,4.088235294117647
M7642902,Sevens,6.634548611111111
M7642907,Huskens,15.25
M7642908,Otter,45.83985879332477
M7642931,Drossaert,20.204405737704917
M7642940,Kemperman,3.0
M7642980,Galetzka,2.5104166666666665
M7643001,Romer,6.0
M7643039,Gardeniers,6.557407407407408
M7643041,Brey,5.739795918367347
M7643058,Geveling,21.05391061452514
M7643179,Pieterse,8.934579439252337
M7643206,Brinkman,23.346615720524017
M7643214,Reidsma,39.74302575107296
M7643229,Benes,50.39387755102041
M7643236,Meelissen,1.75
M7643241,Verschuur,27.982919254658384
M7643242,Duits,18.7078125
M7643247,Keulen,57.67382044560944
M7643268,Visscher,44.919969512195124
M7643270,Svensson,6.306297709923665
M7643281,Meinsma,29.032813975448537
M7643291,Wiegerink,53.727516059957175
M7643294,Zandvliet,22.29222972972973
M7643301,Haken,23.712622549019606
M7643342,Klok,8.028361344537815
M7643357,Hoekstra,10.044354838709678
M7643368,Akkerman,15.425145348837209
M7643373,Boer,23.965733590733592
M7643393,Beijnum,9.590996168582375
M7643394,Koopman,7.123831775700935
M7643419,Boer,3.5
M7643450,Slooten,17.444055944055943
M7643472,Geurts,7.55625
M7643513,Boer,1.7666666666666666
M7643516,Westerheijden,1.5833333333333333
M7643543,Rinket,12.130434782608695
M7643546,Vries,7.0
M7643547,Katoen,5.576923076923077
M7643549,Belinfante,4.45
M7643552,Vossensteyn,9.723809523809523
M7643613,Joolingen,13.5
M7643650,Tas,41.123062015503876
M7643656,Kooijman-van Dijk,3.8846153846153846
M7643723,Steenbergen,15.79265873015873
M7643724,Scheinhardt,20.277695716395865
M7643816,Weerd-Nederhof,3.65
M7643827,Vries,3.25
M7643945,Leede,122.29076086956522
M7643956,Hoef,18.56006006006006
M7643977,Buitenweg,3.3920454545454546
M7643983,Brilman,21.55517578125
M7644010,Heida,25.96698113207547
M7644054,Kelly,4.5
M7644064,Ferreira Pires,75.71867681498829
M7644069,Seshan,7.7792792792792795
M7644079,Warnet,16.420664206642066
M7644122,Mckenney-Jensh,7.5171875
M7644135,Al-Jibouri,8.892857142857142
M7644141,Vancso,4.023809523809524
M7644151,Golubov,2.864864864864865
M7644172,Jones,1.5
M7644216,Kovalgin,30.99388254486134
M7644253,Lohse,3.307142857142857
M7644261,Coenders,10.112204724409448
M7644270,Luyten,3.1512345679012346
M7644272,Jeliazkova,2.5454545454545454
M7644386,Schasfoort,17.5
M7644387,Rensink,28.96118611378978
M7644398,Nijmeijer,7.529620853080568
M7644414,Roos,4.795454545454546
M7644473,Karreman,13.799597855227882
M7644511,Kraaijenbrink,107.29245283018868
M7644598,Verhoef,9.903153153153154
M7644645,Vegt,18.53857142857143
M7644685,Vuuren,3.5224358974358974
M7644693,Heldeweg,12.359011627906977
M7644747,Versluis,6.155109489051095
M7644779,Heylen,4.561507936507937
M7644790,Tutert,1.75
M7645056,Hospers,7.901709401709402
M7645130,Lefferts,16.58653846153846
M7645283,Snoeijer,1.8017241379310345
M7645289,Bonnema,13.264274061990212
M7645316,Graaf,33.17982456140351
M7645325,Meer,19.36182902584493
M7645632,Lazonder,7.451834862385321
M7645648,Brouwers-Ren,16.92687074829932
M7645839,Schotanus,6.31858407079646
M7645900,Kessels,1.7771739130434783
M7645955,Nieuwenhuis,106.72222222222223
M7645967,Stamatialis,11.748847926267281
M7646044,Tollenaar,38.978656801365965
M7646064,Boer,16.075757575757574
M7646101,Hagmeijer,20.163903061224488
M7646125,Stoffels,35.33105231143552
M7646183,Annema,11.6796875
M7646215,Boller,14.505836575875486
M7646268,Kooij,7.01792828685259
M7646288,Brem,3.514705882352941
M7646339,Vergeer,
M7646349,Hartel,27.688157894736843
M7646374,Dewulf,5.091397849462366
M7646389,Harmsen,29.690086206896552
M7646390,Wessel,3.22972972972973
M7646440,Wilderom,51.703512396694215
M7646441,Apeldoorn,3.5166666666666666
M7646446,Rosema,5.372641509433962
M7646500,Voordijk,2.2333333333333334
M7646543,Stienstra,82.39788732394366
M7646563,Dijk,10.09136546184739
M7646598,Roberts,3.658333333333333
M7646604,Meratnia,44.53049698795181
M7646660,Katsma,10.230176211453745
M7646667,Faber,20.29970930232558
M7646684,Meulen,68.11992786293959
M7646687,Gijlers,20.55993690851735
M7646701,Boucherie,21.840669014084508
M7646703,Boenink,6.825581395348837
M7646749,Constantinides,70.80521472392638
M7646848,Boon,10.982142857142858
M7646898,Timmer,28.10822222222222
M7646927,Theune,20.046835443037974
M7646976,Bakker,1.8888888888888888
M7647031,Etalle,2.375
M7647056,Kiewit,22.707159624413144
M7647083,Stramigioli,7.424124513618677
M7647118,Pruyn,4.0
M7647119,Berkhoff,2.906779661016949
M7647139,Veldhuis,28.008323765786454
M7647145,Meijerink,22.348076923076924
M7647170,Manohar,10.283108108108108
M7647181,Christenhusz,4.480392156862745
M7647221,Mader,19.270423600605145
M7647230,Hummel,4.213414634146342
M7647233,Kaap,9.03061224489796
M7647239,Dierkes,16.818481848184817
M7647251,Smit,2.8970588235294117
M7647326,Boes,2.732142857142857
M7647333,Mojet,3.0
M7647338,Ben Allouch,2.75
M7647354,Bochev,24.034306569343066
M7647376,Harten,4.694444444444445
M7647383,Wilhelm,27.00442043222004
M7647395,Dhalle,15.218908629441625
M7647415,Mandal,37.68037974683544
M7647473,Roorda,30.91687979539642
M7647476,Loendersloot,38.665189125295505
M7647484,Terlouw,7.0
M7647491,Offerhaus,21.69485294117647
M7647519,Sturm,17.5
M7647563,Joosten,27.838709677419356
M7647598,Meijer-Meijer,1.6875
M7647645,Hermens,6.282258064516129
M7647830,Berg,3.9411764705882355
M7647839,Werf,1.8362068965517242
M7647908,Klooster,7.067961165048544
M7647924,Vos,1.8095238095238095
M7648006,Tempelman,15.101449275362318
M7648048,Huijben,18.4745
M7648086,Halman,34.42670682730924
M7648180,Litvak,18.522614622057002
M7648197,Asseldonk,4.974206349206349
M7648267,Ossewaarde,4.855172413793103
M7648290,Huibers,7.0
M7648295,Reinders,6.33
M7648308,Oosterwijk,7.041044776119403
M7648330,Garde,17.69547134935305
M7648338,Bijl-Brouwer,13.915909090909091
M7648397,Ehrenhard,58.83700980392157
M7648564,Schmitz,31.11705202312139
M7648604,Haverkort,32.035267857142856
M7648616,Leisyte,1.7666666666666666
M7648624,Mes,34.69214876033058
M7648658,Schildkamp,1.75
M7648665,Brouwer,7.5472222222222225
M7648691,Verwey,15.947066326530612
M7648732,Mosk,13.768181818181818
M7648843,Homminga,5.70703125
M7648865,Eijkel,7.128415300546448
M7648877,Krol,6.601593625498008
M7648910,Kokkeler,28.98489932885906
M7648958,Eger,17.587372448979593
M7649248,Wendrich,22.463917525773194
M7649262,Stienen,6.461711711711712
M7649450,Lok,1.75
M7649481,Bor,26.112517580872012
M7649493,Spikker,34.640972222222224
M7649500,Habibovic,1.75
M7649501,Rouwkema,1.5
M7649502,Boer,1.5
M7649508,Moroni,1.5
M7649510,Kolloffel,3.475
M7649594,Katwijk,14.803345388788427
M7649607,Ebbers,2.0
M7649622,Til,12.271604938271604
M7660070,Erp,7.005434782608695
M7660077,Scheffler,3.9565217391304346
M7660099,Waal,10.13508064516129
M7660100,Smeets,6.0180921052631575
M7660111,Groll,9.255291005291005
M7660214,Veltman,5.546296296296297
M7660253,Dickinson,22.488938053097346
M7660319,Joosten,5.546296296296297
M7660320,Meer,5.546296296296297
M7660404,Henseler,60.79563233376793
M7660479,Erkin,81.02626582278481
M7660482,Berg,6.603448275862069
M7660656,Bai,3.6666666666666665
M7660742,Heuvel,94.66935483870968
M7660845,Veldman,3.0
M7660846,Markvoort,1.7142857142857142
M7660871,Nagel,10.124301675977653
M7661071,Stuiver,133.60714285714286
M7661181,Ehn,5.630952380952381
M7661339,Sweep,10.090361445783133
M7661346,Zheng,1.75
M7661361,Douglas,3.4444444444444446
M7661484,Dijk,7.260204081632653
M7661690,Lieshout,2.5
M7661710,Cortes Arevalo,2.575
M7661967,Lange,3.55
M7665010,Bennink,4.804216867469879
M7665046,Koster,18.1213163064833
M7665115,Tuijl,1.75
M7665193,Noordermeer,10.431818181818182
M7665207,Eijk,3.6470588235294117
M7665471,Vaneker,35.46838331160365
M7665495,Toxopeus,18.22865275142315
M7665509,Kersten,6.315789473684211
M7665520,Slot,8.594497607655502
M7665552,Jonker,6.0
M7665573,Leferink,3.25
M7665579,Munnik,3.4285714285714284
M7665581,Hoogland,3.4444444444444446
M7665589,Bliek,112.8
M7680005,Wolters,1.8461538461538463
M7680146,Belt,21.56799674267101
M7680308,Hartmann,33.454166666666666
M7680348,Filatova,6.683467741935484
M7680394,Vanapalli,81.31419683257919
M7680470,Goseling,16.49058219178082
M7680523,Stoelinga,33.57736943907157
M7680576,Janssens,2.96
M7680577,Hakvoort,4.678571428571429
M7680734,Subramaniam,1.25
M7680839,Prangsma,1.8461538461538463
M7680913,Blaauw,22.326433121019107
M7680975,Handelzalts,4.930327868852459
M7680998,Verkerke,7.561320754716981
M7681030,Bondarouk,55.48326771653543
M7681079,Wijnberg,7.54
M7681127,Houselt,14.457142857142857
M7681158,Remke,7.096153846153846
M7681210,Zalewska-Kurek,7.798295454545454
M7681216,Pozarlik,27.847861842105264
M7681230,Benneworth,13.056338028169014
M7681246,Mulder-Nijkamp,17.42340791738382
M7681257,Kogel-Polak,30.27521613832853
M7681336,Daneva,9.613235294117647
M7681343,Wits,31.424161585365855
M7681441,Vries,7.385964912280702
M7681450,Hueting,26.22110552763819
M7681469,Cappellen van Walsum,45.12253584229391
M7681595,Hofman,7.868206521739131
M7681614,Wiel,25.67093023255814
M7681627,Perdahcioglu,8.70076923076923
M7681718,Blum,6.528985507246377
M7681740,Mugele,5.453703703703703
M7681776,Feber,54.16761363636363
M7681870,Hoekstra,5.717320261437909
M7681879,Kleine,2.0
M7681891,Bos-Nehles,47.27750809061489
M7681901,Bruinsma,3.75
M7681981,Groenier,8.055343511450381
M7681984,Gac,1.90625
M7682179,Hoof,9.6285140562249
M7682358,Hillegersberg,38.19881889763779
M7682383,Entrop,23.735376044568245
M7682553,Putten,56.58083038869258
M7682708,Schretlen,25.733591885441527
M7682743,Lubbe,13.950187969924812
M7682800,Rompay,11.219696969696969
M7682816,Spreeuwers,7.843167701863354
M7682843,Reenalda,2.8333333333333335
M7682866,Deursen,2.5707547169811322
M7682870,Kulyk,10.028125
M7682958,Amrit,14.496936274509803
M7683058,Dertien,8.933445190156599
M7683108,Lee,17.5
M7683142,Visser,18.91497975708502
M7683239,Hoppe,1.99
M7683298,Hoffmann,12.525896414342629
M7683424,Veenendaal,8.913793103448276
M7683471,Velsen,6.603448275862069
M7683472,Verheggen,36.021341463414636
M7683481,Rijkeboer,13.915909090909091
M7683482,Heijblom,13.076732673267326
M7683492,Visser,68.75
M7683652,Jauregui Becker,10.621761658031089
M7683670,Borsje,3.0904255319148937
M7683678,Geerlings,31.852830188679246
M7683723,Klink,2.5
M7683762,Cremonini,1.5833333333333333
M7683807,Bode,10.48134328358209
M7683989,Braakman-Jansen,9.11111111111111
M7684157,Dankers,44.015277777777776
M7684381,Thomas,7.748756218905473
M7684417,Rietman,2.8333333333333335
M7684471,Lowik,35.83440797186401
M7684542,Andel,9.19017094017094
M7684697,Graaf,1.8269230769230769
M7684711,Hillegersberg-Hofmans,11.25
M7684783,Miller,8.479166666666666
M7684796,Posthuma,7.998407643312102
M7685015,Giebels,7.3272357723577235
M7685061,Kolster,
M7685083,Ploegman,2.4166666666666665
M7685152,Klooster,6.222222222222222
M7685226,Aly,15.07306338028169
M7685370,Carlen,3.0
M7685423,Ymker,9.989697802197803
M7685437,Luyk,11.949203187250996
M7685498,Kievik,15.0
M7685514,Kuhlmann,7.2
M7685556,Tije,2.864130434782609
M7685560,Sperotto,35.73
M7685576,Iacob,24.784778225806452
M7685578,Kemna,1.75
M7685630,Kijl,133.60714285714286
M7685686,Hoeksma,20.11190476190476
M7685768,Bosman,27.443396226415093
M7685803,Gosselt,12.986184210526316
M7685891,Karperien,19.54083333333333
M7685944,Meulen,5.293103448275862
M7686051,Herek,4.364583333333333
M7686055,Baaij,38.7803738317757
M7686176,Franco Garcia,83.50714285714285
M7686199,S?raker,69.19720812182742
M7686213,Bosems,2.111111111111111
M7686415,Folkertsma,7.199275362318841
M7686441,Meijer,7.853225806451613
M7686480,Al Hanbali,6.670081967213115
M7686527,Goncalves da Silva,77.25931490384616
M7686530,Stoorvogel,11.5256052141527
M7686539,Warmink,3.6666666666666665
M7686587,Jong,9.25839552238806
M7686610,Haijkens,9.04766355140187
M7686618,Eggink,57.27783613445378
M7686723,Odijk,2.1666666666666665
M7686743,Donnelly-Stockentree,6.067857142857143
M7686788,Gerbens-Leenes,5.53169014084507
M7686794,Tsai,
M7686799,Beukel,13.97970479704797
M7686943,Jonkheijm,29.209233791748527
M7686978,Janssen,3.1379310344827585
M7687008,Reekum,37.65235173824131
M7687015,Terstappen,1.8461538461538463
M7687024,Warntjen,4.15
M7687063,Ossebaard,1.875
M7687078,Beer,1.75
M7687086,Ellenbroek,7.558974358974359
M7687097,Fernandez Rivas,
M7687154,Bellos-Grob,10.919491525423728
M7687163,Pol,31.572844827586206
M7687168,Schuurman-Hemmer,24.870071684587813
M7687235,Jong,30.517017828200974
M7687239,Donnelly,6.343645484949833
M7687306,Sun,3.65
M7687311,Marin,5.669491525423729
M7687332,Coeckelbergh,3.75
M7687355,Pothof,15.126666666666667
M7687383,Baas,8.607843137254902
M7687386,Bohlmeijer,9.666107382550335
M7687417,Junjan,8.025210084033613
M7687466,Luding,15.970338983050848
M7687532,Oosterhuis,9.19017094017094
M7687535,Claessens,3.6578947368421053
M7687560,Filippi,7.48576512455516
M7687601,Uetz,11.158405172413794
M7687612,Plass,9.953038674033149
M7687632,Kelders,4.268518518518518
M7687713,Linders,2.75
M7687794,Driel,10.63738019169329
M7687836,Zwart,12.067554240631164
M7687929,Carloni,16.18438914027149
M7687998,Schouten,3.8333333333333335
M7687999,Beldad,24.355119825708062
M7688008,Lovink,14.86111111111111
M7688040,Vliet,2.75
M7688058,Saharso,6.996815286624204
M7688073,Hartmann,6.402777777777778
M7688095,Siesling,11.78
M7688100,Pulles,45.967576791808874
M7688126,Huis in 't Veld,2.4166666666666665
M7688253,Wolterink,1.8888888888888888
M7688305,Montfort,4.169354838709677
M7688348,Damgrave,14.996742671009772
M7688357,Woud-van der Graaf,21.199530516431924
M7688447,Alers,15.785575048732943
M7688482,Weide,6.529032258064516
M7688504,Oude Vrielink,11.25
M7688543,Huisman,30.01109813084112
M7688549,Wynsberghe,9.656
M7688558,Junger,3.75
M7688585,Bentum,9.241624790619765
M7688589,Leferink,12.390350877192983
M7688680,Manen,12.203164556962026
M7688748,Westerhof,9.429078014184396
M7688749,Broos,22.095767575322814
M7688759,Lange,8.912820512820513
M7688792,Broeders,4.74
M7688863,Beeloo,19.41271347248577
M7688895,Rossum,3.75
M7688900,Holsbeeke,23.578125
M7688923,Boer,1.75
M7688961,Jansma,7.340740740740741
M7688973,Dijk,15.370238095238095
M7688987,Wijngaert,4.091772151898734
M7689037,Harms,54.16702586206897
M7689079,Berg,12.589139344262295
M7689104,Schraagen,6.666118421052632
M7689132,Dijk,2.575
M7689147,Oude Luttikhuis,14.365319865319865
M7689175,Loon,26.261964735516372
M7689194,Noordzij,17.138758782201407
M7689286,Sleegers,1.8452380952380953
M7689341,Meertens,2.923076923076923
M7689425,Meijerink,50.31776556776557
M7689431,Wezel,3.859375
M7689450,Aydin,6.379310344827586
M7689451,Mos-Oppersma,15.87828947368421
M7689470,Pouls,23.03914447134786
M7689504,Geel,1.75
M7689539,Pol,3.2016129032258065
M7689564,Dalum,1.5
M7689628,Seddon,5.790697674418604
M7689637,Vollenbroek-Hutten,6.441666666666666
M7689758,Hack,3.0
M7689765,Bosch,5.779605263157895
M7689856,Dopheide,5.779605263157895
M7689871,Kluijver,27.688157894736843
M7689957,Zevenbergen,5.779605263157895
M7689989,Naqshband,3.0
M7689993,Lamers,11.802215189873417
M7690041,Doggen,26.579891304347825
M7690064,Heide,1.7314814814814814
M7690145,Stegmaier,5.5
M7690163,Cramer Bornemann,22.370056497175142
M7690164,Schon,9.728260869565217
M7690171,Korevaar,11.863636363636363
M7690172,Loohuis,49.482421875
M7690252,Cornelissen,16.699685534591193
M7690314,Schreurs,10.45873786407767
M7690349,Groothuis-Oudshoorn,13.604803493449781
M7691556,Laan,6.6
M7691633,Beck,1.8461538461538463
M7691661,Waanders,13.915909090909091
M7691722,Stehouwer,14.583333333333334
M7691850,Zagaris,19.298240291262136
M7691908,Garrel,5.269230769230769
M7691934,Misra,2.625
M7692038,Kabir,63.43181818181818
M7692040,Schiele,70.57530120481928
M7692048,Need,5.5133689839572195
M7692051,Pots,3.8257575757575757
M7692112,Rutten,3.5
M7692138,Konrad,6.370283018867925
M7692144,Gerven-Haanpaa,6.60093896713615
M7692168,Thornton,7.05
M7692184,Schmettow,6.356884057971015
M7692187,Weinhart,41.88973922902494
M7692191,Schryver,117.15104166666667
M7692200,Ozerol,7.2
M7692216,Vondeling,3.4375
M7692228,Brugnach,3.2589285714285716
M7692334,Morissens,6.823770491803279
M7692342,Pinkse,8.128140703517587
M7692351,Gradussen,1.9264705882352942
M7692387,Passel,26.698935140367862
M7692392,Tiehuis,41.14476102941177
M7692396,Bekooij,4.214285714285714
M7692397,Lemay,7.246677740863787
M7692419,Manthey,7.0673076923076925
M7692501,Geurs,13.727732793522268
M7692537,Groothuis,12.0
M7692541,Martens,2.15
M7692548,Schilder,7.213829787234043
M7692618,Vermaas,34.65181194906954
M7692763,Beusenberg,9.19017094017094
M7692766,Mul,44.12344398340249
M7692781,Ctistis,1.8461538461538463
M7692850,Matera,2.966666666666667
M7692898,Kargl,34.214285714285715
M7692975,Zubair,2.007575757575758
M7693007,Cornelissen,3.7394736842105263
M7693008,Ordonez Matamoros,11.85
M7693023,Lehnert,9.816115702479339
M7693143,Weerd,5.336538461538462
M7693166,Wan,11.863636363636363
M7693169,Herder,4.66
M7693257,Magnanimo,13.482517482517483
M7693278,Trompetter,1.9615384615384615
M7693283,Hoogeboom,39.37299465240642
M7693295,Brands,4.136363636363637
M7693322,Badieh Habib Morgan,36.3724279835391
M7693430,Vliegen,4.566489361702128
M7693506,Velde,5.3962765957446805
M7693620,Norris,17.5
M7693636,Saris,9.953038674033149
M7693645,Pelgrom,3.75
M7693709,Huang,60.703125
M7693720,Rietman,3.5
M7693730,Garcia Blanco,28.81777493606138
M7693802,Molder,4.533018867924528
M7693822,Nijboer,2.3653846153846154
M7693831,Singaram,4.7023809523809526
M7693842,Prins,6.603448275862069
M7693848,Kaffka,133.60714285714286
M7693851,Gill,3.933333333333333
M7693885,Endedijk,1.8676470588235294
M7693999,Gemenis,9.324303405572756
M7694030,Dongen,8.113636363636363
M7694124,Meulenbeek,4.535714285714286
M7694199,Braungart,4.555555555555555
M7694202,Oliveira Schmidt,38.7803738317757
M7694218,Barneveld,14.86111111111111
M7694219,Berge,10.211610486891386
M7694221,Lionarons,6.501470588235295
M7694264,Kohle,15.0
M7694272,Zeng,1.7045454545454546
M7694291,Klaassen,15.434375
M7694342,Bergmans-Blijleven,1.5
M7694359,Geevers,9.619047619047619
M7694445,Jans,3.5
M7694477,Schivo,38.7803738317757
M7694541,Broersen,22.619277108433735
M7694757,Katsonis,17.923577235772356
M7694860,Amstel,5.630952380952381
M7694863,Stipanovic,8.206521739130435
M7694973,Zwanenburg,39.57202602230483
M7694987,Graaf,2.5
M7694992,Dijk,15.0
M7695001,Ebbeler,2.425
M7695361,Schuur,15.306105610561056
M7695372,Bruggen,4.833333333333333
M7695426,Figee,3.7074468085106385
M7695432,Kudernac,15.954379562043796
M7695467,Benschop,3.65
M7695503,Haan,7.543478260869565
M7695506,Verschoof,3.5
M7695515,Schwenninger,22.676470588235293
M7695525,Mishra,2.3333333333333335
M7695596,Petit,34.214285714285715
M7695615,Okkinga,3.75
M7695743,Beusichem,7.492424242424242
M7695770,Mitici,3.6666666666666665
M7695790,Bera,15.434375
M7695793,Sools,10.876190476190477
M7695811,Postel,3.75
M7695812,Bosch,23.036415711947626
M7695817,Evers,5.5625
M7695849,Pit,15.434375
M7695865,Mostowski,38.7803738317757
M7695871,Zebel,8.32596685082873
M7695874,Huijser,3.3316326530612246
M7695890,Paap,10.345528455284553
M7695985,Kouznetsov,5.602941176470588
M7695987,Hilverda,7.005434782608695
M7695989,Vogel,24.719354838709677
M7696037,Matic-Lentferink,15.888319672131148
M7696041,Rol,2.875
M7696106,Lugt,1.75
M7696160,Ufkes,20.324570815450645
M7696243,Vrugte,7.997311827956989
M7696276,Graaff,81.02626582278481
M7696282,Pahlow,2.9342105263157894
M7696351,Hegner,2.4919354838709675
M7696352,Fenko,2.2934782608695654
M7696415,Oukes,133.60714285714286
M7696496,Hekman,4.181818181818182
M7696526,Weiss,3.05
M7696605,Paulusse,8.401933701657459
M7696748,Broekhuizen,13.038461538461538
M7696753,Kip,7.465909090909091
M7696754,Buiten,2.35
M7696756,Belo,1.6818181818181819
M7696764,Ham,6.0
M7696769,Scheelhaase,4.113636363636363
M7696778,Siretanu,3.9210526315789473
M7696826,Bolscher,13.915909090909091
M7696840,Ludden,7.636627906976744
M7696913,Karreman,2.0
M7696964,Bennink,22.27403846153846
M7697004,Carrera,9.59952606635071
M7697202,Dijk,2.0
M7697255,Baltrusaitis,4.325
M7697303,Lohse,1.75
M7697364,Guareschi,4.125
M7697367,Kogel,21.79115341545353
M7697414,Zhao,5.293103448275862
M7697429,Everlo,41.14476102941177
M7697437,Vollenbroek,3.627906976744186
M7697495,Metselaar,2.025
M7697513,Vos,3.85
M7697514,Braaksma,8.113636363636363
M7697515,La Paix Puello,2.7083333333333335
M7697605,Smits,3.4
M7697650,Hoorn,3.6666666666666665
M7697679,Rorink-Heerink,8.012452107279694
M7697710,Bakker,7.005434782608695
M7697769,Dijk,7.005434782608695
M7697853,Boogers,13.056338028169014
M7697855,Oosterhof,4.068181818181818
M7697858,Waanders,13.915909090909091
M7697992,Peter,10.10960591133005
M7698026,Tinga,6.79
M7698163,Joosse,2.75
M7698199,Everts,11.949203187250996
M7698244,Klauw,8.176470588235293
M7698342,Kerstholt,7.005434782608695
M7698500,Nagenborg,3.108490566037736
M7698518,Zeinstra,7.998407643312102
M7698544,Frasca,11.054054054054054
M7698553,Koeneman,25.03415991902834
M7698576,Baran,3.5
M7698768,Thierry,7.109523809523809
M7698858,Walburg,2.0
M7698921,Kruijs,17.5
M7698952,Veelen,1.875
M7698963,Lange,5.477611940298507
M7698967,Hoogendoorn,48.32225433526011
M7699012,Rajabali Nejad,6.7592592592592595
M7699035,Cavalli,3.6315789473684212
M7699058,Boer,17.222142857142856
M7699080,Torenvlied,6.033950617283951
M7699111,Yakshin,17.5
M7699115,Engelhardt,5.88563829787234
M7699117,Serbetci,3.6666666666666665
M7699120,Falgoust,8.63665254237288
M7699168,Wijga,3.75
M7699178,Lai,39.93153266331658
M7699195,Schreiber,32.22762345679013
M7699198,Vos,46.633663366336634
M7699208,Barth,11.437366167023555
M7699243,Groot Jebbink,7.961693548387097
M7699338,Blume,8.588888888888889
M7699406,Bos,1.75
M7699454,Oostinga,3.5555555555555554
M7699533,Jansen,6.823770491803279
M7699609,Herrera,3.4
M7699653,Kostiuchenko,3.0
M7699726,Brune,19.26872246696035
M7699743,Vosslamber,22.33225806451613
M7699780,Harting,1.75
M7699840,Engelhardt,6.453333333333333
